…
#### Checking some data  
- File 5, Vr52 26.4.2018

```r
# File 3, Vr52 26.4.2018
dat <- get_data_filestation(8)
dat %>%
  filter(floor_date(Date, "day") == ymd("2018-04-26")) %>%
  head(30)
```

```
## # A tibble: 30 x 10
##    ProjectName StationCode Date                Depth1 Depth2 Saltholdighet
##    <chr>       <chr>       <dttm>               <dbl>  <dbl>         <dbl>
##  1 ØKOKYST No~ VR52        2018-04-26 12:02:46    0      0.5          1.77
##  2 ØKOKYST No~ VR52        2018-04-26 12:02:46    0.5    1.5          3.91
##  3 ØKOKYST No~ VR52        2018-04-26 12:02:46    1.5    2.5          6.82
##  4 ØKOKYST No~ VR52        2018-04-26 12:02:46    2.5    3.5         29.5 
##  5 ØKOKYST No~ VR52        2018-04-26 12:02:46    3.5    4.5         31.0 
##  6 ØKOKYST No~ VR52        2018-04-26 12:02:46    4.5    5.5         31.6 
##  7 ØKOKYST No~ VR52        2018-04-26 12:02:46    5.5    6.5         31.8 
##  8 ØKOKYST No~ VR52        2018-04-26 12:02:46    6.5    7.5         31.9 
##  9 ØKOKYST No~ VR52        2018-04-26 12:02:46    7.5    8.5         32.1 
## 10 ØKOKYST No~ VR52        2018-04-26 12:02:46    8.5    9.5         32.4 
## # ... with 20 more rows, and 4 more variables: Temperatur <dbl>, Oksygen <dbl>,
## #   Oksygenmetning <dbl>, Metode <chr>
```

```r
# File 12, station 68870, 2018-08-21
dat <- get_data_filestation(14)
dat %>%
  filter(floor_date(Date, "day") == ymd("2018-08-21")) %>%
  head(30)
```

```
## # A tibble: 30 x 11
##    ProjectId StationId Date                Depth1 Depth2 Saltholdighet
##        <dbl>     <dbl> <dttm>               <dbl>  <dbl>         <dbl>
##  1     10446     68870 2018-08-21 08:29:41    0      0.5          34.5
##  2     10446     68870 2018-08-21 08:29:41    0.5    1.5          32.1
##  3     10446     68870 2018-08-21 08:29:41    1.5    2.5          32.2
##  4     10446     68870 2018-08-21 08:29:41    2.5    3.5          32.3
##  5     10446     68870 2018-08-21 08:29:41    3.5    4.5          32.4
##  6     10446     68870 2018-08-21 08:29:41    4.5    5.5          32.4
##  7     10446     68870 2018-08-21 08:29:41    5.5    6.5          32.4
##  8     10446     68870 2018-08-21 08:29:41    6.5    7.5          32.4
##  9     10446     68870 2018-08-21 08:29:41    7.5    8.5          32.5
## 10     10446     68870 2018-08-21 08:29:41    8.5    9.5          32.5
## # ... with 20 more rows, and 5 more variables: Temperatur <dbl>, Oksygen <dbl>,
## #   Oksygenmetning <dbl>, Fluorescense <dbl>, Metode <chr>
```
…
