…
# Check 
dat_bottom %>%
  select(StationCode, Date, Oksygen, Max_depth, Max_depth_station, Max_depth_perc)
```

```
## # A tibble: 68 x 6
## # Groups:   StationCode, Date [66]
##    StationCode Date                Oksygen Max_depth Max_depth_stati~
##    <chr>       <dttm>                <dbl>     <dbl>            <dbl>
##  1 VR51        2017-03-21 00:00:00   3.55      254.             254. 
##  2 VR51        2017-04-07 00:00:00   3.35      248.             254. 
##  3 VR51        2017-04-21 00:00:00   0.115     252.             254. 
##  4 VR51        2017-05-04 00:00:00   3.37      250.             254. 
##  5 VR51        2017-06-08 00:00:00   4.33      244.             254. 
##  6 VR51        2017-07-18 00:00:00   4.29      250.             254. 
##  7 VR51        2017-08-21 00:00:00   4.12      246.             254. 
##  8 VR51        2017-09-18 00:00:00   3.44      254.             254. 
##  9 VR51        2017-11-20 00:00:00   3.89      246.             254. 
## 10 VT71        2017-03-20 00:00:00   6.19       71.5             74.5
## # ... with 58 more rows, and 1 more variable: Max_depth_perc <dbl>
```
…
dat_oxygen
```

```
## # A tibble: 129 x 6
##    StationCode Date                Oksygen Oksygenmetning Depth1 Position
##    <chr>       <dttm>                <dbl>          <dbl>  <dbl> <chr>   
##  1 VR51        2017-03-21 00:00:00   3.55           53.8   254.  Bottom  
##  2 VR51        2017-04-07 00:00:00   3.35           50.8   248.  Bottom  
##  3 VR51        2017-04-21 00:00:00   0.115           1.76  252.  Bottom  
##  4 VR51        2017-05-04 00:00:00   3.37           51.1   250.  Bottom  
##  5 VR51        2017-06-08 00:00:00   4.33           65.8   244.  Bottom  
##  6 VR51        2017-07-18 00:00:00   4.29           65.2   250.  Bottom  
##  7 VR51        2017-08-21 00:00:00   4.12           62.7   246.  Bottom  
##  8 VR51        2017-09-18 00:00:00   3.44           52.3   254.  Bottom  
##  9 VR51        2017-11-20 00:00:00   3.89           59.2   246.  Bottom  
## 10 VT71        2017-03-20 00:00:00   6.19           89.8    71.5 Bottom  
## # ... with 119 more rows
```
…
