…
### Reformat data

```r
dat <- df_chem %>%
  select(STATION_CODE, SAMPLE_DATE, DEPTH1, PARAM_NAME, VALUE) %>%
  tidyr::pivot_wider(names_from = "PARAM_NAME", values_from = "VALUE") %>%
  rename(StationCode = STATION_CODE, 
         Date = SAMPLE_DATE, 
         Depth1 = DEPTH1)

dat
```

```
## # A tibble: 505 x 12
##    StationCode Date                Depth1 `NH4-N`   TSM  SiO2 `NO3+NO2-N`  TOTP
##    <chr>       <dttm>               <dbl>   <dbl> <dbl> <dbl>       <dbl> <dbl>
##  1 VT71        2017-02-16 00:00:00      0      20  0.19   330          75    21
##  2 VT71        2017-02-16 00:00:00      5      19  0.51   320          75    21
##  3 VT71        2017-02-16 00:00:00     10      20  0.37   340          79    21
##  4 VT71        2017-02-16 00:00:00     20      20  0.21   350          81    21
##  5 VT71        2017-02-16 00:00:00     30      23  0.21   330          79    21
##  6 VT71        2017-03-20 00:00:00      0      32  0.53   130          43    18
##  7 VT71        2017-03-20 00:00:00      5      38  0.48   140          41    19
##  8 VT71        2017-03-20 00:00:00     10      34  0.46   110          42    19
##  9 VT71        2017-03-20 00:00:00     20      33  0.55   110          45    19
## 10 VT71        2017-03-20 00:00:00     30      36  0.47   120          45    20
## # ... with 495 more rows, and 4 more variables: TOTN <dbl>, `PO4-P` <dbl>,
## #   KlfA <dbl>, `TOTN (old EF)` <dbl>
```
…
